{
  "kind": "collectionType",
  "collectionName": "categorias",
  "info": {
    "name": "Categoria"
  },
  "options": {
    "increments": true,
    "timestamps": true
  },
  "attributes": {
    "nombre": {
      "type": "string"
    },
    "solicituds": {
      "via": "categorias",
      "collection": "solicitud",
      "dominant": true
    }
  }
}
